<svg width="43" height="48" viewBox="0 0 43 48" fill="none" xmlns="http://www.w3.org/2000/svg">
<g clip-path="url(#clip0)">
<path d="M24.2544 22.763C24.3802 23.0396 24.6302 23.1999 24.8894 23.1999C24.9977 23.1999 25.1086 23.1717 25.2119 23.1127C25.2536 23.0883 29.4394 20.6968 31.5036 19.9627C31.8777 19.8287 32.0852 19.3796 31.9661 18.9587C31.8477 18.5378 31.4511 18.3034 31.0736 18.4365C28.8994 19.2099 24.7419 21.5865 24.5652 21.6868C24.2161 21.8874 24.0769 22.3693 24.2544 22.763Z" fill="#282828"/>
<path d="M24.8892 13.6001C24.9976 13.6001 25.1084 13.5719 25.2117 13.5129C25.2534 13.4885 29.4392 11.097 31.5034 10.3629C31.8776 10.2289 32.0851 9.77981 31.9659 9.35888C31.8476 8.93795 31.4509 8.70358 31.0734 8.83671C28.8992 9.61013 24.7417 11.9866 24.5651 12.087C24.2151 12.2866 24.0759 12.7685 24.2534 13.1632C24.3809 13.4397 24.6309 13.6001 24.8892 13.6001Z" fill="#282828"/>
<path d="M41.9558 12C41.5625 12 41.245 12.3582 41.245 12.7997V43.9991C41.245 45.3219 40.2875 46.3991 39.1117 46.3991H22.045V44.5588C23.0817 44.151 25.7825 43.1994 28.445 43.1994C34.6392 43.1994 38.8458 44.7425 38.8875 44.7585C39.1017 44.8381 39.3408 44.7988 39.5275 44.6478C39.7133 44.4978 39.8225 44.256 39.8225 43.9991V8.80041C39.8225 8.42542 39.5917 8.10011 39.2658 8.01949C39.2658 8.01949 38.7083 7.8798 37.7558 7.68293C37.3708 7.60325 36.9992 7.89105 36.9283 8.32417C36.8575 8.75916 37.1125 9.17634 37.4983 9.25603C37.8617 9.33103 38.1658 9.39759 38.4008 9.45009V42.9369C36.7892 42.4616 33.2108 41.6001 28.445 41.6001C25.3467 41.6001 22.3033 42.7448 21.3617 43.1329C20.525 42.7166 17.9942 41.6001 14.9342 41.6001C10.0358 41.6001 6.00083 42.5085 4.2675 42.9707V9.42009C5.6875 9.02728 9.88167 8.00074 14.9342 8.00074C17.5267 8.00074 19.7508 8.90822 20.6233 9.31884V40.7995C20.6233 41.0873 20.7608 41.3535 20.9842 41.4951C21.2067 41.6376 21.4808 41.6338 21.7008 41.4848C21.7708 41.4379 28.8167 36.7036 35.07 34.359C35.3608 34.2493 35.5567 33.9446 35.5567 33.5996V0.800878C35.5567 0.538383 35.4425 0.292763 35.25 0.143703C35.0592 -0.00629376 34.815 -0.0400431 34.595 0.0518301C28.9058 2.45272 23.1483 6.48296 23.0908 6.52327C22.7583 6.75764 22.6567 7.25075 22.865 7.62575C23.0725 7.9998 23.5117 8.11417 23.845 7.8798C23.8975 7.8423 28.9058 4.33706 34.135 1.97086V33.0278C29.2808 34.9252 24.2125 38.0236 22.0458 39.4111V8.80041C22.0458 8.4976 21.8933 8.22011 21.6525 8.08418C21.53 8.01668 18.6158 6.40046 14.935 6.40046C8.50917 6.40046 3.56917 7.96418 3.36167 8.03168C3.05667 8.12917 2.84583 8.44323 2.84583 8.80041V44C2.84583 44.2503 2.95083 44.4875 3.12833 44.6385C3.25333 44.7453 3.40417 44.7997 3.5575 44.7997C3.6225 44.7997 3.68833 44.7894 3.7525 44.7688C3.80167 44.7538 8.71917 43.2004 14.9358 43.2004C17.5358 43.2004 19.7575 44.1107 20.625 44.5194V46.4H3.55583C2.38 46.4 1.4225 45.3228 1.4225 44V12.8006C1.4225 12.3591 1.10417 12.001 0.711667 12.001C0.319167 12.001 0 12.3591 0 12.8006V44C0 46.2059 1.595 48.0003 3.55583 48.0003H39.1117C41.0725 48.0003 42.6675 46.2059 42.6675 44V12.8006C42.6667 12.3591 42.3492 12 41.9558 12Z" fill="#282828"/>
<path d="M24.2544 17.9631C24.3802 18.2397 24.6302 18.4 24.8894 18.4C24.9977 18.4 25.1086 18.3718 25.2119 18.3128C25.2536 18.2884 29.4394 15.8969 31.5036 15.1628C31.8777 15.0288 32.0852 14.5797 31.9661 14.1588C31.8477 13.7379 31.4511 13.5035 31.0736 13.6366C28.8994 14.41 24.7419 16.7866 24.5652 16.8869C24.2161 17.0875 24.0769 17.5694 24.2544 17.9631Z" fill="#282828"/>
<path d="M24.2544 27.5629C24.3802 27.8395 24.6302 27.9998 24.8894 27.9998C24.9977 27.9998 25.1086 27.9716 25.2119 27.9126C25.2536 27.8882 29.4394 25.4967 31.5036 24.7626C31.8777 24.6295 32.0852 24.1795 31.9661 23.7586C31.8477 23.3377 31.4511 23.1033 31.0736 23.2364C28.8994 24.0098 24.7419 26.3864 24.5652 26.4867C24.2161 26.6873 24.0769 27.1692 24.2544 27.5629Z" fill="#282828"/>
<path d="M17.2291 14.8469C12.8383 13.6872 7.84825 15.1647 7.63825 15.2275C7.25909 15.3419 7.03409 15.7806 7.13575 16.2072C7.22075 16.5644 7.50825 16.7997 7.82242 16.7997C7.88325 16.7997 7.94575 16.7912 8.00742 16.7725C8.05492 16.7575 12.8591 15.3353 16.9058 16.4041C17.2866 16.5044 17.6708 16.2381 17.7608 15.8069C17.8491 15.3775 17.6116 14.9472 17.2291 14.8469Z" fill="#282828"/>
<path d="M17.2291 19.6468C12.8383 18.4881 7.84825 19.9646 7.63825 20.0274C7.25909 20.1418 7.03409 20.5805 7.13575 21.0071C7.22075 21.3643 7.50825 21.5996 7.82242 21.5996C7.88325 21.5996 7.94575 21.5911 8.00742 21.5724C8.05492 21.5574 12.8591 20.1352 16.9058 21.204C17.2866 21.3043 17.6708 21.038 17.7608 20.6068C17.8491 20.1774 17.6116 19.7471 17.2291 19.6468Z" fill="#282828"/>
<path d="M24.2544 32.3628C24.3802 32.6394 24.6302 32.7997 24.8894 32.7997C24.9977 32.7997 25.1086 32.7716 25.2119 32.7125C25.2536 32.6881 29.4394 30.2966 31.5036 29.5626C31.8777 29.4294 32.0852 28.9794 31.9661 28.5585C31.8477 28.1376 31.4511 27.9032 31.0736 28.0363C28.8994 28.8098 24.7419 31.1863 24.5652 31.2866C24.2161 31.4872 24.0769 31.9691 24.2544 32.3628Z" fill="#282828"/>
<path d="M17.2291 24.4467C12.8383 23.288 7.84825 24.7636 7.63825 24.8273C7.25909 24.9417 7.03409 25.3804 7.13575 25.807C7.22075 26.1642 7.50825 26.4004 7.82242 26.4004C7.88325 26.4004 7.94575 26.391 8.00742 26.3723C8.05492 26.3573 12.8591 24.9351 16.9058 26.0039C17.2866 26.1042 17.6708 25.8379 17.7608 25.4067C17.8491 24.9773 17.6116 24.547 17.2291 24.4467Z" fill="#282828"/>
<path d="M17.2291 34.0465C12.8383 32.8878 7.84825 34.3643 7.63825 34.4271C7.25909 34.5415 7.03409 34.9803 7.13575 35.4068C7.22075 35.764 7.50825 36.0002 7.82242 36.0002C7.88325 36.0002 7.94575 35.9909 8.00742 35.9721C8.05492 35.9571 12.8591 34.5349 16.9058 35.6037C17.2866 35.7031 17.6708 35.4377 17.7608 35.0065C17.8491 34.5771 17.6116 34.1468 17.2291 34.0465Z" fill="#282828"/>
<path d="M17.2291 29.2466C12.8383 28.0879 7.84825 29.5635 7.63825 29.6272C7.25909 29.7416 7.03409 30.1803 7.13575 30.6069C7.22075 30.9641 7.50825 31.2003 7.82242 31.2003C7.88325 31.2003 7.94575 31.191 8.00742 31.1722C8.05492 31.1572 12.8591 29.735 16.9058 30.8038C17.2866 30.9041 17.6708 30.6378 17.7608 30.2066C17.8491 29.7772 17.6116 29.3469 17.2291 29.2466Z" fill="#282828"/>
</g>
<defs>
<clipPath id="clip0">
<rect width="42.6667" height="48" fill="white"/>
</clipPath>
</defs>
</svg>
